NAME : 	X-n242-k48	
COMMENT : 	"Generated by Uchoa, Pecin, Pessoa, Poggi, Subramanian, and Vidal (2013)"	
TYPE : 	CVRP	
DIMENSION : 	242	
EDGE_WEIGHT_TYPE : 	EUC_2D	
CAPACITY : 	28	
NODE_COORD_SECTION		
1	0	0
2	346	793
3	692	966
4	171	666
5	287	795
6	93	919
7	712	216
8	991	988
9	475	266
10	71	307
11	83	987
12	518	392
13	807	134
14	377	164
15	692	127
16	701	530
17	831	255
18	938	210
19	873	127
20	569	817
21	796	379
22	6	182
23	917	620
24	728	936
25	157	644
26	668	333
27	564	876
28	861	333
29	70	79
30	330	931
31	513	308
32	230	725
33	896	107
34	234	758
35	911	970
36	177	587
37	697	37
38	947	615
39	861	54
40	620	667
41	739	572
42	861	818
43	917	398
44	555	473
45	992	303
46	701	695
47	588	974
48	556	781
49	627	213
50	19	93
51	837	398
52	277	133
53	521	177
54	694	875
55	575	428
56	949	337
57	752	458
58	432	417
59	173	459
60	881	966
61	101	210
62	270	113
63	951	30
64	959	856
65	554	981
66	72	873
67	681	319
68	149	612
69	799	203
70	30	618
71	92	644
72	997	104
73	727	707
74	163	790
75	364	966
76	119	969
77	931	207
78	820	844
79	630	384
80	721	103
81	209	814
82	176	751
83	476	638
84	76	178
85	62	523
86	737	499
87	442	611
88	42	123
89	194	726
90	835	589
91	521	825
92	554	637
93	11	702
94	129	540
95	659	941
96	122	683
97	123	119
98	111	386
99	253	262
100	338	989
101	844	543
102	596	175
103	657	234
104	369	551
105	688	921
106	228	473
107	676	942
108	463	128
109	875	97
110	982	861
111	67	607
112	445	748
113	828	305
114	659	433
115	43	98
116	216	200
117	673	668
118	387	303
119	768	421
120	258	543
121	737	698
122	124	97
123	859	222
124	130	599
125	52	803
126	157	460
127	888	289
128	970	456
129	854	776
130	600	549
131	877	51
132	992	969
133	80	304
134	893	539
135	805	76
136	990	256
137	873	464
138	306	119
139	101	574
140	836	204
141	74	223
142	438	996
143	150	894
144	979	964
145	733	939
146	716	390
147	787	27
148	947	450
149	599	860
150	893	538
151	801	106
152	846	847
153	627	625
154	553	193
155	435	902
156	860	100
157	472	765
158	605	123
159	887	327
160	752	426
161	996	198
162	789	612
163	803	935
164	361	801
165	760	739
166	170	958
167	786	418
168	107	470
169	531	586
170	646	977
171	892	113
172	486	445
173	778	834
174	438	499
175	128	494
176	572	1000
177	174	964
178	599	871
179	957	677
180	518	177
181	93	349
182	506	454
183	792	919
184	55	284
185	116	755
186	368	125
187	502	114
188	994	392
189	523	837
190	721	780
191	907	303
192	719	842
193	799	638
194	928	824
195	280	162
196	697	736
197	131	96
198	680	683
199	850	512
200	972	443
201	913	538
202	499	296
203	296	811
204	664	100
205	237	179
206	232	621
207	252	659
208	474	107
209	401	630
210	556	126
211	804	296
212	180	632
213	405	387
214	475	300
215	992	105
216	137	104
217	454	340
218	821	145
219	307	108
220	780	725
221	453	269
222	756	679
223	196	467
224	120	954
225	512	344
226	266	435
227	559	986
228	248	22
229	446	627
230	672	964
231	247	606
232	834	425
233	269	568
234	115	328
235	565	915
236	621	421
237	701	511
238	70	610
239	771	636
240	937	537
241	664	187
242	840	406
DEMAND_SECTION		
1	0	
2	6	
3	2	
4	2	
5	1	
6	8	
7	3	
8	1	
9	4	
10	7	
11	10	
12	4	
13	6	
14	9	
15	7	
16	2	
17	6	
18	2	
19	2	
20	5	
21	4	
22	6	
23	4	
24	10	
25	1	
26	1	
27	1	
28	3	
29	1	
30	4	
31	6	
32	1	
33	7	
34	9	
35	7	
36	3	
37	10	
38	10	
39	6	
40	4	
41	1	
42	3	
43	10	
44	10	
45	7	
46	9	
47	10	
48	8	
49	4	
50	10	
51	7	
52	7	
53	7	
54	5	
55	1	
56	3	
57	8	
58	10	
59	7	
60	3	
61	6	
62	3	
63	9	
64	7	
65	10	
66	6	
67	5	
68	8	
69	8	
70	5	
71	2	
72	5	
73	8	
74	1	
75	7	
76	10	
77	9	
78	7	
79	9	
80	7	
81	5	
82	2	
83	5	
84	4	
85	6	
86	10	
87	3	
88	6	
89	3	
90	6	
91	4	
92	3	
93	3	
94	7	
95	6	
96	6	
97	9	
98	6	
99	5	
100	10	
101	7	
102	10	
103	3	
104	1	
105	2	
106	1	
107	8	
108	6	
109	5	
110	10	
111	9	
112	7	
113	6	
114	7	
115	4	
116	9	
117	1	
118	7	
119	2	
120	9	
121	2	
122	10	
123	1	
124	6	
125	4	
126	3	
127	10	
128	4	
129	1	
130	10	
131	5	
132	3	
133	9	
134	8	
135	3	
136	1	
137	10	
138	4	
139	5	
140	2	
141	4	
142	1	
143	4	
144	6	
145	3	
146	7	
147	3	
148	6	
149	5	
150	1	
151	3	
152	9	
153	4	
154	2	
155	6	
156	5	
157	10	
158	7	
159	6	
160	10	
161	2	
162	8	
163	6	
164	7	
165	5	
166	6	
167	8	
168	1	
169	7	
170	10	
171	4	
172	10	
173	10	
174	7	
175	7	
176	1	
177	2	
178	1	
179	2	
180	7	
181	9	
182	7	
183	10	
184	4	
185	3	
186	3	
187	10	
188	2	
189	3	
190	2	
191	8	
192	2	
193	9	
194	10	
195	5	
196	8	
197	8	
198	9	
199	1	
200	10	
201	10	
202	9	
203	7	
204	2	
205	3	
206	3	
207	3	
208	1	
209	1	
210	10	
211	10	
212	5	
213	5	
214	10	
215	7	
216	1	
217	8	
218	1	
219	1	
220	1	
221	4	
222	5	
223	9	
224	7	
225	9	
226	7	
227	3	
228	7	
229	7	
230	2	
231	5	
232	5	
233	7	
234	2	
235	10	
236	3	
237	5	
238	5	
239	5	
240	3	
241	6	
242	3	
DEPOT_SECTION		
	1	
	-1	
EOF		